%YAML 1.1
%TAG !u! tag:unity3d.com,2011:
--- !u!21 &2100000
Material:
  serializedVersion: 6
  m_ObjectHideFlags: 0
  m_CorrespondingSourceObject: {fileID: 0}
  m_PrefabInstance: {fileID: 0}
  m_PrefabAsset: {fileID: 0}
  m_Name: Mat Comic
  m_Shader: {fileID: -6465566751694194690, guid: 6d771e294c479074aa7500cba7804fa1,
    type: 3}
  m_ShaderKeywords: 
  m_LightmapFlags: 4
  m_EnableInstancingVariants: 0
  m_DoubleSidedGI: 0
  m_CustomRenderQueue: -1
  stringTagMap: {}
  disabledShaderPasses:
  - SHADOWCASTER
  m_SavedProperties:
    serializedVersion: 3
    m_TexEnvs:
    - Texture2D_DC6DF663:
        m_Texture: {fileID: 0}
        m_Scale: {x: 1, y: 1}
        m_Offset: {x: 0, y: 0}
    - _BaseMap:
        m_Texture: {fileID: 0}
        m_Scale: {x: 1, y: 1}
        m_Offset: {x: 0, y: 0}
    - _BumpMap:
        m_Texture: {fileID: 0}
        m_Scale: {x: 1, y: 1}
        m_Offset: {x: 0, y: 0}
    - _EmissionMap:
        m_Texture: {fileID: 0}
        m_Scale: {x: 1, y: 1}
        m_Offset: {x: 0, y: 0}
    - _HalftonePattern:
        m_Texture: {fileID: 2800000, guid: 54c07b3fb90c3344ba3fb3966fdf64cb, type: 3}
        m_Scale: {x: 1, y: 1}
        m_Offset: {x: 0, y: 0}
    - _HvyTex:
        m_Texture: {fileID: 2800000, guid: 54c07b3fb90c3344ba3fb3966fdf64cb, type: 3}
        m_Scale: {x: 1, y: 1}
        m_Offset: {x: 0, y: 0}
    - _LitTex:
        m_Texture: {fileID: 2800000, guid: e46a2d3d8bdf82b4382d60de2ba7b13b, type: 3}
        m_Scale: {x: 1, y: 1}
        m_Offset: {x: 0, y: 0}
    - _MainTex:
        m_Texture: {fileID: 2800000, guid: e46a2d3d8bdf82b4382d60de2ba7b13b, type: 3}
        m_Scale: {x: 0.85, y: 1}
        m_Offset: {x: 0, y: 0}
    - _MedTex:
        m_Texture: {fileID: 2800000, guid: af7cab4f3a00f9a408bfb94f64caf70c, type: 3}
        m_Scale: {x: 1, y: 1}
        m_Offset: {x: 0, y: 0}
    - _MetallicGlossMap:
        m_Texture: {fileID: 0}
        m_Scale: {x: 1, y: 1}
        m_Offset: {x: 0, y: 0}
    - _OcclusionMap:
        m_Texture: {fileID: 0}
        m_Scale: {x: 1, y: 1}
        m_Offset: {x: 0, y: 0}
    - _SampleCubemap_74771035_Cube_1:
        m_Texture: {fileID: 8900000, guid: 24b73049cd1f12c4680315db59c22d88, type: 3}
        m_Scale: {x: 1, y: 1}
        m_Offset: {x: 0, y: 0}
    - _SpecGlossMap:
        m_Texture: {fileID: 0}
        m_Scale: {x: 1, y: 1}
        m_Offset: {x: 0, y: 0}
    m_Floats:
    - Vector1_29C6AB4C: 0
    - Vector1_46F4FBA0: 251.5
    - Vector1_ADAD9479: 0
    - Vector1_E023A9A8: 0.65
    - Vector1_EE54776A: 80.5
    - _AlphaClip: 0
    - _Blend: 0
    - _BumpScale: 1
    - _Cull: 2
    - _Cutoff: 0.5
    - _DstBlend: 10
    - _EnvironmentReflections: 1
    - _GlossMapScale: 0
    - _Glossiness: 0
    - _GlossyReflections: 0
    - _Metallic: 0
    - _OcclusionStrength: 1
    - _QueueOffset: 0
    - _ReceiveShadows: 1
    - _RemapInputMax: 1
    - _RemapInputMin: 0
    - _RemapOutputMax: 1
    - _RemapOutputMin: 0
    - _Repeat: 1.66
    - _Smoothness: 0.5
    - _SmoothnessTextureChannel: 0
    - _SpecularHighlights: 1
    - _SrcBlend: 5
    - _Surface: 1
    - _WorkflowMode: 1
    - _ZWrite: 0
    m_Colors:
    - Color_DAC4E11B: {r: 1, g: 1, b: 1, a: 0}
    - Vector2_CFCD19EF: {r: 0, g: 2.2, b: 0, a: 0}
    - _BaseColor: {r: 0, g: 0, b: 0, a: 0.5529412}
    - _Color: {r: 0.9960785, g: 0.9960785, b: 0.9176471, a: 1}
    - _Emission: {r: 0.039546248, g: 0.039546248, b: 0.039546248, a: 1}
    - _EmissionColor: {r: 0, g: 0, b: 0, a: 1}
    - _SpecColor: {r: 0.19999996, g: 0.19999996, b: 0.19999996, a: 1}
--- !u!114 &1042847615944464776
MonoBehaviour:
  m_ObjectHideFlags: 11
  m_CorrespondingSourceObject: {fileID: 0}
  m_PrefabInstance: {fileID: 0}
  m_PrefabAsset: {fileID: 0}
  m_GameObject: {fileID: 0}
  m_Enabled: 1
  m_EditorHideFlags: 0
  m_Script: {fileID: 11500000, guid: d0353a89b1f911e48b9e16bdc9f2e058, type: 3}
  m_Name: 
  m_EditorClassIdentifier: 
  version: 1
